{
    "meta": {
        "code": 200
    },
    "data": {
        "id": "a259f13f-fa41-4f5c-b600-8b4d41808760",
        "token": "5730a99e-76d8-4dae-8c7b-cb460c9c20d3",
        "created": "2024-06-27T00:22:12+02:00",
        "shipments": [
            {
                "id": "7d4826b3-7ff3-4f0e-b340-eab25b5048e9",
                "barcode": "3SQLW0019146660",
                "tracking_url": "https:\/\/goparcel.nl\/track\/3SQLW0019146660\/NL\/3316GD",
                "shop_integration_id": null,
                "product": {
                    "customs_declaration_type": "document",
                    "has_custom_document": false,
                    "has_label": true,
                    "has_zpl_label": true
                },
                "delivery_contact": {
                    "country": "NL",
                    "country_detail": {
                        "eu_tax": true
                    }
                }
            }
        ],
        "labels": {
            "a4": {
                "offset_0": "https:\/\/api.pakketdienstqls.nl\/pdf\/labels\/a259f13f-fa41-4f5c-b600-8b4d41808760.pdf?token=5730a99e-76d8-4dae-8c7b-cb460c9c20d3\u0026offset=0\u0026size=a4",
                "offset_1": "https:\/\/api.pakketdienstqls.nl\/pdf\/labels\/a259f13f-fa41-4f5c-b600-8b4d41808760.pdf?token=5730a99e-76d8-4dae-8c7b-cb460c9c20d3\u0026offset=1\u0026size=a4",
                "offset_2": "https:\/\/api.pakketdienstqls.nl\/pdf\/labels\/a259f13f-fa41-4f5c-b600-8b4d41808760.pdf?token=5730a99e-76d8-4dae-8c7b-cb460c9c20d3\u0026offset=2\u0026size=a4",
                "offset_3": "https:\/\/api.pakketdienstqls.nl\/pdf\/labels\/a259f13f-fa41-4f5c-b600-8b4d41808760.pdf?token=5730a99e-76d8-4dae-8c7b-cb460c9c20d3\u0026offset=3\u0026size=a4"
            },
            "a6": "https:\/\/api.pakketdienstqls.nl\/pdf\/labels\/a259f13f-fa41-4f5c-b600-8b4d41808760.pdf?token=5730a99e-76d8-4dae-8c7b-cb460c9c20d3\u0026size=a6",
            "a6_zpl": "https:\/\/api.pakketdienstqls.nl\/pdf\/labels\/a259f13f-fa41-4f5c-b600-8b4d41808760.zpl?token=5730a99e-76d8-4dae-8c7b-cb460c9c20d3\u0026size=a6"
        }
    },
    "pagination": []
}
